<?xml version="1.0" encoding="UTF-8"?>
<svg width="161px" height="161px" viewBox="0 0 161 161" version="1.1" xmlns="http://www.w3.org/2000/svg" xmlns:xlink="http://www.w3.org/1999/xlink">
    <!-- Generator: Sketch 47 (45396) - http://www.bohemiancoding.com/sketch -->
    <title>Untitled</title>
    <desc>Created with Sketch.</desc>
    <defs></defs>
    <g id="Page-1" stroke="none" stroke-width="1" fill="none" fill-rule="evenodd">
        <g id="Group-3">
            <path d="M81,5.5 C122.4,5.5 156,39.1 156,80.5 C156,121.9 122.4,155.5 81,155.5 C39.6,155.5 6,121.9 6,80.5 C6,39.1 39.6,5.5 81,5.5 L81,5.5 Z M81,0.5 C36.8,0.5 1,36.3 1,80.5 C1,124.7 36.8,160.5 81,160.5 C125.2,160.5 161,124.7 161,80.5 C161,36.3 125.2,0.5 81,0.5 L81,0.5 Z" id="Shape" fill="#BCB3AE" fill-rule="nonzero"></path>
            <g id="Group" transform="translate(69.000000, 17.000000)" fill-rule="nonzero">
                <path d="M4.4,93.2 C3.3,93 2.5,91.9 2.7,90.8 L19.5,4 C19.7,2.9 20.8,2.1 21.9,2.3 L84.9,14.4 C86,14.6 86.8,15.7 86.6,16.8 L72.7,89 C72.6,89.6 72.2,90.1 71.7,90.4 L52.6,102 C52.2,102.3 51.6,102.4 51.1,102.3 L4.4,93.2 Z" id="Shape" fill="#FFFFFF"></path>
                <path d="M1.9,95.7 C0.7,95.5 -0.1,94.3 0.2,93.1 L17.7,2.1 C17.9,0.9 19.1,0.1 20.3,0.4 L86.4,13.1 C87.6,13.3 88.4,14.5 88.1,15.7 L73.5,91.4 C73.4,92 73,92.5 72.5,92.9 L52.5,104.9 C52,105.2 51.5,105.3 51,105.2 L1.9,95.7 Z M22.7,5.3 C22.1,5.2 21.6,5.6 21.4,6.1 L5.1,90.7 C5,91.3 5.4,91.8 5.9,92 L50.5,100.6 C50.8,100.7 51,100.6 51.3,100.5 L51.5,100.4 C51.8,100.2 51.9,100 52,99.7 L54.4,87.1 L68.2,89.8 C68.8,89.9 69.3,89.5 69.5,89 L83.2,18 C83.3,17.4 82.9,16.9 82.4,16.7 L22.7,5.3 Z" id="Shape" fill="#BCB3AE"></path>
                <path d="M66.9,58.1 C62.6,57.7 59.1,56.6 56.8,55.8 L55.9,51.6 L43.8,47.8 L29.6,51 L24.4,48.4 C23.2,47.8 21.8,48.3 21.2,49.5 C20.6,50.7 21.1,52.1 22.3,52.7 L27.6,55.3 L28.9,61.1 C27.1,63 23.7,66.2 19.4,68.1 C18.2,68.6 17.6,70 18.1,71.2 C18.4,72 19.1,72.5 19.8,72.6 C20.2,72.7 20.7,72.6 21.2,72.4 C23.9,71.3 26.3,69.7 28.2,68.1 C27.1,69.5 25.9,70.9 24.4,72 C23.4,72.8 23.2,74.3 24.1,75.3 C24.5,75.7 25,76 25.5,76.1 C26.2,76.2 26.9,76.1 27.4,75.6 C31.8,72 34.6,67.2 36,64.5 L55.4,60.2 C57.2,60.9 59.5,61.6 62.3,62.1 C63.6,62.3 65,62.6 66.4,62.7 C67.7,62.8 68.9,61.9 69,60.6 C69.1,59.4 68.2,58.2 66.9,58.1 L66.9,58.1 Z" id="Shape" fill="#DB3A68"></path>
                <path d="M57.7,47.1 C58.1,47.2 58.5,47.3 59,47.3 C60.2,47.5 61.4,47.5 62.6,47.2 C64.6,46.6 66.5,45 66.2,42.5 C65.9,40.2 60,39.6 59.4,39.3 C57.7,38.3 56.8,36.8 55,36 C54.7,35.9 54.3,35.7 54,35.6 C53.8,35.5 53.7,35.4 53.7,35.2 C53.6,34.5 53.5,33.8 53.4,33.2 C53.2,32 52.6,31 51.5,30.5 C51.1,30.3 49,29.8 48.8,33.1 C48.8,33.8 48.7,34.6 48.5,35.2 C47.8,37.7 46.8,40.2 45.8,42.6 C45.4,43.7 44.9,44.8 44.5,45.9 L55.9,49.4 C56,49.6 57.5,47 57.7,47.1 L57.7,47.1 Z" id="Shape" fill="#DB3A68"></path>
            </g>
            <g id="Group" transform="translate(0.000000, 26.000000)">
                <path d="M31,110.5 C29.9,110.8 28.7,110.2 28.4,109.1 L3.3,23.9 C3,22.8 3.6,21.6 4.7,21.3 L66.6,3 C67.7,2.7 68.9,3.3 69.2,4.4 L90.1,75.3 C90.3,75.9 90.2,76.5 89.9,77 L78.1,96 C77.8,96.4 77.4,96.8 76.9,96.9 L31,110.5 Z" id="Shape" fill="#FFFFFF" fill-rule="nonzero"></path>
                <g id="Shape">
                    <path d="M29.6,112.4 C28.4,112.7 27.2,112.1 26.9,110.9 L0.7,22 C0.4,20.8 1,19.6 2.2,19.3 L66.7,0.3 C67.9,-2.44249065e-15 69.1,0.6 69.4,1.8 L91.2,75.8 C91.4,76.4 91.3,77 91,77.6 L78.7,97.4 C78.4,97.9 78,98.2 77.5,98.4 L29.6,112.4 Z M6.6,22.6 C6,22.8 5.7,23.4 5.9,23.9 L30.2,106.5 C30.4,107.1 31,107.4 31.5,107.2 L75.1,94.4 C75.4,94.3 75.6,94.2 75.7,93.9 L75.8,93.7 C76,93.4 76,93.1 75.9,92.8 L72.3,80.5 L85.8,76.5 C86.4,76.3 86.7,75.7 86.5,75.2 L66.2,6.1 C66,5.5 65.4,5.2 64.9,5.4 L6.6,22.6 Z" fill="#BCB3AE" fill-rule="nonzero"></path>
                    <g transform="translate(21.000000, 23.000000)">
                        <path d="M30.9,13.2 C27.7,15 23.6,13.8 21.8,10.5 C20,7.3 21.2,3.2 24.5,1.4 C27.7,-0.4 31.8,0.8 33.6,4.1 C35.4,7.4 34.2,11.5 30.9,13.2 L30.9,13.2 Z" fill="#BCB3AE"></path>
                        <path d="M21.7,34.7 L19.6,36.3 L16.8,50.6 L19,57.2 C19.3,58 18.8,58.9 18,59.1 C18,59.1 18,59.1 17.9,59.1 C17.1,59.3 16.3,58.9 16,58.1 L14.6,53.9 L15.2,58.7 C15.3,59.5 14.8,60.2 14.1,60.4 C14,60.4 13.9,60.4 13.9,60.5 C13.1,60.6 12.3,60 12.2,59.2 L11.1,51.4 L8.8,50.9 L6.1,53.1 C6,53.2 5.9,53.3 5.7,53.3 C5.3,53.4 4.8,53.3 4.5,52.9 C4.1,52.4 4.2,51.7 4.7,51.3 L4.7,51.3 L7.2,49.3 L9.5,39.5 L14.3,33.2 L17.5,34 L20,32.1" fill="#DB3A68"></path>
                        <path d="M12.9,30.2 C12.8,30.4 12.6,30.7 12.5,30.9 C12.4,31.1 13.7,32.7 13.7,32.7 L9,38.7 C8.4,38.2 7.8,37.7 7.2,37.2 C5.9,36.1 4.7,34.9 3.3,34 C2.9,33.7 2.5,33.5 2.1,33.4 C0.1,32.6 0.9,31.4 1.1,31.2 C1.6,30.6 2.4,30.5 3.1,30.6 C3.5,30.7 4,30.8 4.4,30.9 C4.5,30.9 4.6,30.9 4.7,30.8 C4.8,30.6 5,30.4 5.1,30.3 C6,29.3 7.1,29.1 8,28.3 C8.3,28 9.9,24.5 11.4,24.8 C13,25.1 13.6,26.6 13.5,28 C13.5,28.8 13.3,29.5 12.9,30.2 L12.9,30.2 Z" fill="#DB3A68"></path>
                        <path d="M20.1,32.1 C20.2,31.1 20.9,30.2 21.9,29.9 C27.7,28.2 29.8,23.1 28.9,19.1 C28.5,17.1 29.6,15 31,13.7 C31,13.7 31.5,13.2 32.2,12.8 C32.8,12.5 33.6,12.2 33.6,12.2 L33.6,12.2 C35.8,11.6 38.8,12.1 40.1,14.5 L47.1,27.5 C47.5,28.3 47.7,29.1 47.6,29.9 C47.6,30 46.8,38.6 46.8,38.6 L53.8,36.5 C55.7,35.9 57.6,37 58.2,38.9 C58.8,40.8 57.7,42.7 55.8,43.3 L43.8,46.8 C42.7,47.1 41.4,46.9 40.5,46.1 C39.6,45.3 39.1,44.2 39.2,43 L39.7,37.7 L35.9,40.1 L40,48.2 C40.9,49.9 40.2,52.1 38.4,53 C38.2,53.1 38,53.2 37.8,53.2 C36.2,53.7 34.4,52.9 33.6,51.4 L28.1,40.4 C27.3,38.8 27.8,36.8 29.4,35.8 L35.5,31.9 L32.9,27.1 C31.3,30.7 28,33.3 23.1,34.7 C22.5,34.9 21.8,34.9 21.3,34.6 C19.9,33.6 20.1,32.1 20.1,32.1 Z" fill="#BCB3AE"></path>
                    </g>
                </g>
            </g>
        </g>
    </g>
</svg>