<?xml version="1.0" encoding="utf-8"?>
<!-- Generator: Adobe Illustrator 17.0.0, SVG Export Plug-In . SVG Version: 6.00 Build 0)  -->
<!DOCTYPE svg PUBLIC "-//W3C//DTD SVG 1.1//EN" "http://www.w3.org/Graphics/SVG/1.1/DTD/svg11.dtd">
<svg version="1.1" id="Capa_1" xmlns="http://www.w3.org/2000/svg" xmlns:xlink="http://www.w3.org/1999/xlink" x="0px" y="0px"
	 width="841.89px" height="595.28px" viewBox="0 0 841.89 595.28" enable-background="new 0 0 841.89 595.28" xml:space="preserve">
<g>
	<g>
		<path fill="#BABABA" d="M709.848,27.958H132.042c-4.825,0-8.737,3.912-8.737,8.737v521.89c0,4.825,3.912,8.737,8.737,8.737
			h577.807c4.825,0,8.737-3.912,8.737-8.737V36.696C718.585,31.871,714.673,27.958,709.848,27.958z M701.111,102.514H239.603
			c-4.825,0-8.737,3.912-8.737,8.737s3.912,8.737,8.737,8.737H701.11v429.86H140.779v-429.86h58.441
			c4.825,0,8.737-3.912,8.737-8.737s-3.912-8.737-8.737-8.737h-58.441V45.432H701.11v57.082H701.111z"/>
	</g>
</g>
<g>
	<g>
		<path fill="#BABABA" d="M448.903,438.014h-55.917c-20.234,0-36.696,16.462-36.696,36.696s16.462,36.696,36.696,36.696h55.917
			c20.234,0,36.696-16.462,36.696-36.696C485.599,454.475,469.137,438.014,448.903,438.014z M448.903,493.931h-55.917
			c-10.599,0-19.221-8.622-19.221-19.221c0-10.599,8.623-19.221,19.221-19.221h55.917c10.599,0,19.221,8.623,19.221,19.221
			C468.124,485.308,459.502,493.931,448.903,493.931z"/>
	</g>
</g>
<g>
	<g>
		<path fill="#BABABA" d="M635.292,65.237h-1.165c-4.825,0-8.737,3.912-8.737,8.737s3.912,8.737,8.737,8.737h1.165
			c4.825,0,8.737-3.912,8.737-8.737S640.117,65.237,635.292,65.237z"/>
	</g>
</g>
<g>
	<g>
		<path fill="#BABABA" d="M672.571,65.237h-1.165c-4.825,0-8.737,3.912-8.737,8.737s3.912,8.737,8.737,8.737h1.165
			c4.825,0,8.737-3.912,8.737-8.737S677.396,65.237,672.571,65.237z"/>
	</g>
</g>
<g>
	<g>
		<path fill="#BABABA" d="M596.849,65.237h-1.165c-4.825,0-8.737,3.912-8.737,8.737s3.912,8.737,8.737,8.737h1.165
			c4.825,0,8.737-3.912,8.737-8.737S601.675,65.237,596.849,65.237z"/>
	</g>
</g>
<g>
	<g>
		<path fill="#BABABA" d="M669.427,460.812l-59.719-59.721l33.361-33.361c4.662-4.662,2.468-12.876-3.879-14.608l-60.398-16.473
			V223.084c0-4.825-3.912-8.737-8.737-8.737H271.834c-4.825,0-8.737,3.912-8.737,8.737v186.389c0,4.825,3.912,8.737,8.737,8.737
			h237.261l13.93,51.078c1.731,6.348,9.945,8.541,14.608,3.88l33.361-33.361l59.72,59.72c3.366,3.366,8.99,3.366,12.356,0
			l26.359-26.359C672.839,469.755,672.839,464.223,669.427,460.812z M280.571,400.736V231.821H561.32v100.063l-67.106-18.301
			c-6.402-1.746-12.474,4.326-10.728,10.728l20.843,76.425H280.571V400.736z M636.892,480.993l-59.72-59.72
			c-3.366-3.367-8.99-3.366-12.356,0l-28.894,28.893l-31.554-115.701l115.701,31.555l-28.893,28.894
			c-3.412,3.412-3.412,8.944,0,12.356l59.72,59.72L636.892,480.993z"/>
	</g>
</g>
<g>
	<g>
		<path fill="#BABABA" d="M458.223,177.069H271.834c-4.825,0-8.737,3.912-8.737,8.737s3.912,8.737,8.737,8.737h186.389
			c4.825,0,8.737-3.912,8.737-8.737S463.048,177.069,458.223,177.069z"/>
	</g>
</g>
<g>
	<g>
		<path fill="#BABABA" d="M579.376,177.069h-93.194c-4.825,0-8.737,3.912-8.737,8.737s3.912,8.737,8.737,8.737h93.195
			c4.825,0,8.737-3.912,8.737-8.737S584.201,177.069,579.376,177.069z"/>
	</g>
</g>
</svg>
